EESchema Schematic File Version 4
EELAYER 30 0
EELAYER END
$Descr A4 11693 8268
encoding utf-8
Sheet 1 1
Title ""
Date ""
Rev ""
Comp ""
Comment1 ""
Comment2 ""
Comment3 ""
Comment4 ""
$EndDescr
$Comp
L Connector_Generic:Conn_02x05_Odd_Even J1
U 1 1 5EADF49A
P 900 1050
F 0 "J1" V 996 762 50  0000 R CNN
F 1 "Conn_02x05" V 905 762 50  0000 R CNN
F 2 "lib_kicad_TOM:Tom_SIL-5_2" H 900 1050 50  0001 C CNN
F 3 "~" H 900 1050 50  0001 C CNN
	1    900  1050
	0    -1   -1   0   
$EndComp
Text Label 1950 1100 0    50   ~ 0
3V3_Pymodule
Text Label 1950 1200 0    50   ~ 0
3V3_Sensors
Text Label 1950 1300 0    50   ~ 0
P2(G23)
Text Label 1950 1400 0    50   ~ 0
P9(G16)
Text Label 1950 1500 0    50   ~ 0
P10(G17)
Text Label 1950 1600 0    50   ~ 0
P11(G22)
Text Label 1950 1700 0    50   ~ 0
P4(G11)
Text Label 1950 1800 0    50   ~ 0
P8(G15)
$Comp
L power:GND #PWR0101
U 1 1 5EAE280C
P 2600 700
F 0 "#PWR0101" H 2600 450 50  0001 C CNN
F 1 "GND" V 2600 500 50  0000 C CNN
F 2 "" H 2600 700 50  0001 C CNN
F 3 "" H 2600 700 50  0001 C CNN
	1    2600 700 
	0    -1   -1   0   
$EndComp
Text Label 1950 900  0    50   ~ 0
PWR_EN
Text Label 1950 800  0    50   ~ 0
GND
Text Label 1800 800  0    50   ~ 0
1
Text Label 1800 900  0    50   ~ 0
2
Text Label 1800 1100 0    50   ~ 0
3
Text Label 1800 1200 0    50   ~ 0
4
Text Label 1800 1300 0    50   ~ 0
5
Text Label 1800 1400 0    50   ~ 0
6
Text Label 1800 1500 0    50   ~ 0
7
Text Label 1800 1600 0    50   ~ 0
8
Text Label 1800 1700 0    50   ~ 0
9
Text Label 1800 1800 0    50   ~ 0
10
Text Label 700  1350 0    50   ~ 0
1
Text Label 700  700  0    50   ~ 0
2
Text Label 800  1350 0    50   ~ 0
3
Text Label 800  700  0    50   ~ 0
4
Text Label 900  1350 0    50   ~ 0
5
Text Label 900  700  0    50   ~ 0
6
Text Label 1000 700  0    50   ~ 0
8
Text Label 1100 700  0    50   ~ 0
10
Text Label 1100 1350 0    50   ~ 0
9
Text Label 1000 1350 0    50   ~ 0
7
Wire Wire Line
	700  700  700  750 
Wire Wire Line
	800  700  800  750 
Wire Wire Line
	900  700  900  750 
Wire Wire Line
	1000 700  1000 750 
Wire Wire Line
	1100 700  1100 750 
Wire Wire Line
	700  1250 700  1350
Wire Wire Line
	800  1250 800  1350
Wire Wire Line
	900  1250 900  1350
Wire Wire Line
	1000 1250 1000 1350
Wire Wire Line
	1100 1250 1100 1350
$Comp
L power:PWR_FLAG #FLG0101
U 1 1 5EAE999A
P 2600 800
F 0 "#FLG0101" H 2600 875 50  0001 C CNN
F 1 "PWR_FLAG" V 2600 1100 50  0000 C CNN
F 2 "" H 2600 800 50  0001 C CNN
F 3 "~" H 2600 800 50  0001 C CNN
	1    2600 800 
	0    1    1    0   
$EndComp
$Comp
L power:PWR_FLAG #FLG0102
U 1 1 5EAEA13D
P 2600 900
F 0 "#FLG0102" H 2600 975 50  0001 C CNN
F 1 "PWR_FLAG" V 2600 1200 50  0000 C CNN
F 2 "" H 2600 900 50  0001 C CNN
F 3 "~" H 2600 900 50  0001 C CNN
	1    2600 900 
	0    1    1    0   
$EndComp
$Comp
L power:PWR_FLAG #FLG0103
U 1 1 5EAEA38B
P 2600 1100
F 0 "#FLG0103" H 2600 1175 50  0001 C CNN
F 1 "PWR_FLAG" V 2600 1400 50  0000 C CNN
F 2 "" H 2600 1100 50  0001 C CNN
F 3 "~" H 2600 1100 50  0001 C CNN
	1    2600 1100
	0    1    1    0   
$EndComp
$Comp
L power:PWR_FLAG #FLG0104
U 1 1 5EAEF472
P 2600 1200
F 0 "#FLG0104" H 2600 1275 50  0001 C CNN
F 1 "PWR_FLAG" V 2600 1500 50  0000 C CNN
F 2 "" H 2600 1200 50  0001 C CNN
F 3 "~" H 2600 1200 50  0001 C CNN
	1    2600 1200
	0    1    1    0   
$EndComp
$Comp
L power:PWR_FLAG #FLG0105
U 1 1 5EAEF671
P 2600 1300
F 0 "#FLG0105" H 2600 1375 50  0001 C CNN
F 1 "PWR_FLAG" V 2600 1600 50  0000 C CNN
F 2 "" H 2600 1300 50  0001 C CNN
F 3 "~" H 2600 1300 50  0001 C CNN
	1    2600 1300
	0    1    1    0   
$EndComp
$Comp
L power:PWR_FLAG #FLG0106
U 1 1 5EAEF9DD
P 2600 1400
F 0 "#FLG0106" H 2600 1475 50  0001 C CNN
F 1 "PWR_FLAG" V 2600 1700 50  0000 C CNN
F 2 "" H 2600 1400 50  0001 C CNN
F 3 "~" H 2600 1400 50  0001 C CNN
	1    2600 1400
	0    1    1    0   
$EndComp
$Comp
L power:PWR_FLAG #FLG0107
U 1 1 5EAEFC34
P 2600 1500
F 0 "#FLG0107" H 2600 1575 50  0001 C CNN
F 1 "PWR_FLAG" V 2600 1800 50  0000 C CNN
F 2 "" H 2600 1500 50  0001 C CNN
F 3 "~" H 2600 1500 50  0001 C CNN
	1    2600 1500
	0    1    1    0   
$EndComp
$Comp
L power:PWR_FLAG #FLG0108
U 1 1 5EAEFE7D
P 2600 1600
F 0 "#FLG0108" H 2600 1675 50  0001 C CNN
F 1 "PWR_FLAG" V 2600 1900 50  0000 C CNN
F 2 "" H 2600 1600 50  0001 C CNN
F 3 "~" H 2600 1600 50  0001 C CNN
	1    2600 1600
	0    1    1    0   
$EndComp
$Comp
L power:PWR_FLAG #FLG0109
U 1 1 5EAF0116
P 2600 1700
F 0 "#FLG0109" H 2600 1775 50  0001 C CNN
F 1 "PWR_FLAG" V 2600 2000 50  0000 C CNN
F 2 "" H 2600 1700 50  0001 C CNN
F 3 "~" H 2600 1700 50  0001 C CNN
	1    2600 1700
	0    1    1    0   
$EndComp
$Comp
L power:PWR_FLAG #FLG0110
U 1 1 5EAF02FC
P 2600 1800
F 0 "#FLG0110" H 2600 1875 50  0001 C CNN
F 1 "PWR_FLAG" V 2600 2100 50  0000 C CNN
F 2 "" H 2600 1800 50  0001 C CNN
F 3 "~" H 2600 1800 50  0001 C CNN
	1    2600 1800
	0    1    1    0   
$EndComp
Wire Wire Line
	1800 800  2450 800 
Wire Wire Line
	2600 700  2450 700 
Wire Wire Line
	2450 700  2450 800 
Connection ~ 2450 800 
Wire Wire Line
	2450 800  2600 800 
Wire Wire Line
	1800 900  2600 900 
Wire Wire Line
	1800 1200 2600 1200
Wire Wire Line
	1800 1300 2600 1300
Wire Wire Line
	1800 1400 2600 1400
Wire Wire Line
	1800 1500 2600 1500
Wire Wire Line
	1800 1600 2600 1600
Wire Wire Line
	1800 1700 2600 1700
Wire Wire Line
	1800 1800 2600 1800
$Comp
L Device:R R2
U 1 1 5EAF3558
P 3500 2550
F 0 "R2" H 3430 2504 50  0000 R CNN
F 1 "10k" H 3430 2595 50  0000 R CNN
F 2 "Resistors_SMD:R_1206_HandSoldering" V 3430 2550 50  0001 C CNN
F 3 "~" H 3500 2550 50  0001 C CNN
	1    3500 2550
	-1   0    0    1   
$EndComp
$Comp
L Switch:SW_Push SW1
U 1 1 5EAF3B6F
P 3850 2350
F 0 "SW1" H 3850 2635 50  0000 C CNN
F 1 "SW_Push" H 3850 2544 50  0000 C CNN
F 2 "Buttons_Switches_THT:SW_PUSH_6mm" H 3850 2550 50  0001 C CNN
F 3 "~" H 3850 2550 50  0001 C CNN
	1    3850 2350
	1    0    0    -1  
$EndComp
$Comp
L power:+3V3 #PWR0102
U 1 1 5EAF6D08
P 2600 1000
F 0 "#PWR0102" H 2600 850 50  0001 C CNN
F 1 "+3V3" V 2600 1100 50  0000 L CNN
F 2 "" H 2600 1000 50  0001 C CNN
F 3 "" H 2600 1000 50  0001 C CNN
	1    2600 1000
	0    1    1    0   
$EndComp
Wire Wire Line
	1800 1100 2550 1100
Wire Wire Line
	2600 1000 2550 1000
Wire Wire Line
	2550 1000 2550 1100
Connection ~ 2550 1100
Wire Wire Line
	2550 1100 2600 1100
$Comp
L Device:Speaker SP1
U 1 1 5EAFA5A7
P 2100 2450
F 0 "SP1" H 2270 2446 50  0000 L CNN
F 1 "Buzzer" H 2270 2355 50  0000 L CNN
F 2 "Buzzers_Beepers:BUZZER" H 2100 2250 50  0001 C CNN
F 3 "~" H 2090 2400 50  0001 C CNN
	1    2100 2450
	1    0    0    -1  
$EndComp
$Comp
L Device:D D1
U 1 1 5EAFB688
P 1600 2700
F 0 "D1" V 1554 2779 50  0000 L CNN
F 1 "D" V 1645 2779 50  0000 L CNN
F 2 "Diodes_SMD:D_1206" H 1600 2700 50  0001 C CNN
F 3 "~" H 1600 2700 50  0001 C CNN
	1    1600 2700
	0    1    1    0   
$EndComp
$Comp
L power:+3V3 #PWR0103
U 1 1 5EAFC96D
P 1600 2400
F 0 "#PWR0103" H 1600 2250 50  0001 C CNN
F 1 "+3V3" V 1600 2500 50  0000 L CNN
F 2 "" H 1600 2400 50  0001 C CNN
F 3 "" H 1600 2400 50  0001 C CNN
	1    1600 2400
	1    0    0    -1  
$EndComp
Wire Wire Line
	1600 2400 1600 2450
Wire Wire Line
	1900 2450 1600 2450
Connection ~ 1600 2450
Wire Wire Line
	1600 2450 1600 2550
Wire Wire Line
	1900 2550 1850 2550
Wire Wire Line
	1850 2550 1850 2900
$Comp
L power:GND #PWR0104
U 1 1 5EAFFB52
P 1850 3400
F 0 "#PWR0104" H 1850 3150 50  0001 C CNN
F 1 "GND" H 1850 3250 50  0000 C CNN
F 2 "" H 1850 3400 50  0001 C CNN
F 3 "" H 1850 3400 50  0001 C CNN
	1    1850 3400
	1    0    0    -1  
$EndComp
Wire Wire Line
	1850 3350 1850 3400
Wire Wire Line
	1600 2850 1600 2900
Wire Wire Line
	1600 2900 1850 2900
Wire Wire Line
	1850 2950 1850 2900
Connection ~ 1850 2900
$Comp
L Device:R R1
U 1 1 5EB025AB
P 1250 3150
F 0 "R1" V 1043 3150 50  0000 C CNN
F 1 "180" V 1134 3150 50  0000 C CNN
F 2 "Resistors_SMD:R_1206_HandSoldering" V 1180 3150 50  0001 C CNN
F 3 "~" H 1250 3150 50  0001 C CNN
	1    1250 3150
	0    1    1    0   
$EndComp
Wire Wire Line
	1550 3150 1400 3150
$Comp
L power:+3V3 #PWR0105
U 1 1 5EB0AAEF
P 4150 2350
F 0 "#PWR0105" H 4150 2200 50  0001 C CNN
F 1 "+3V3" V 4150 2450 50  0000 L CNN
F 2 "" H 4150 2350 50  0001 C CNN
F 3 "" H 4150 2350 50  0001 C CNN
	1    4150 2350
	0    1    1    0   
$EndComp
$Comp
L power:GND #PWR0106
U 1 1 5EB0B40E
P 3500 2800
F 0 "#PWR0106" H 3500 2550 50  0001 C CNN
F 1 "GND" H 3500 2650 50  0000 C CNN
F 2 "" H 3500 2800 50  0001 C CNN
F 3 "" H 3500 2800 50  0001 C CNN
	1    3500 2800
	1    0    0    -1  
$EndComp
Wire Wire Line
	4150 2350 4050 2350
Wire Wire Line
	3650 2350 3500 2350
Wire Wire Line
	3500 2400 3500 2350
Connection ~ 3500 2350
Wire Wire Line
	3500 2800 3500 2700
Text Notes 3450 2800 1    50   ~ 0
CMS 1206
Text Notes 1450 3300 2    50   ~ 0
CMS 1206
$Comp
L Transistor_BJT:PN2222A Q1
U 1 1 5EB0E8B2
P 1750 3150
F 0 "Q1" H 1940 3196 50  0000 L CNN
F 1 "PN2222A" H 1940 3105 50  0000 L CNN
F 2 "TO_SOT_Packages_THT:TO-92_Inline_Wide" H 1950 3075 50  0001 L CIN
F 3 "http://www.fairchildsemi.com/ds/PN/PN2222A.pdf" H 1750 3150 50  0001 L CNN
	1    1750 3150
	1    0    0    -1  
$EndComp
Text Notes 1950 3350 0    50   ~ 0
TO-92
Wire Notes Line
	3150 600  1750 600 
Wire Notes Line
	1750 600  1750 1900
Wire Notes Line
	1750 1900 3150 1900
Wire Notes Line
	3150 1900 3150 600 
Wire Notes Line
	600  600  600  1450
Wire Notes Line
	600  1450 1700 1450
Wire Notes Line
	1700 1450 1700 600 
Wire Notes Line
	1700 600  600  600 
Wire Notes Line
	600  3700 2600 3700
Wire Notes Line
	2600 3700 2600 2000
Wire Notes Line
	2600 2000 600  2000
Wire Notes Line
	600  2000 600  3700
Wire Notes Line
	2700 2000 2700 3150
Wire Notes Line
	2700 3150 4600 3150
Wire Notes Line
	4600 3150 4600 2000
Wire Notes Line
	4600 2000 2700 2000
Wire Wire Line
	750  3150 1100 3150
Text Label 750  3150 0    50   ~ 0
P10(G17)
Text Label 2950 2350 0    50   ~ 0
P11(G22)
Wire Wire Line
	2950 2350 3500 2350
$Comp
L Device:R R3
U 1 1 5EB2E7D6
P 3500 3800
F 0 "R3" H 3430 3754 50  0000 R CNN
F 1 "10k" H 3430 3845 50  0000 R CNN
F 2 "Resistors_SMD:R_1206_HandSoldering" V 3430 3800 50  0001 C CNN
F 3 "~" H 3500 3800 50  0001 C CNN
	1    3500 3800
	-1   0    0    1   
$EndComp
$Comp
L Switch:SW_Push SW2
U 1 1 5EB2E7E0
P 3850 3600
F 0 "SW2" H 3850 3885 50  0000 C CNN
F 1 "SW_Push" H 3850 3794 50  0000 C CNN
F 2 "Buttons_Switches_THT:SW_PUSH_6mm" H 3850 3800 50  0001 C CNN
F 3 "~" H 3850 3800 50  0001 C CNN
	1    3850 3600
	1    0    0    -1  
$EndComp
$Comp
L power:GND #PWR0107
U 1 1 5EB2E7F4
P 4150 3700
F 0 "#PWR0107" H 4150 3450 50  0001 C CNN
F 1 "GND" H 4150 3550 50  0000 C CNN
F 2 "" H 4150 3700 50  0001 C CNN
F 3 "" H 4150 3700 50  0001 C CNN
	1    4150 3700
	1    0    0    -1  
$EndComp
Wire Wire Line
	4150 3600 4050 3600
Wire Wire Line
	3650 3600 3500 3600
Wire Wire Line
	3500 3650 3500 3600
Connection ~ 3500 3600
Wire Wire Line
	4150 3700 4150 3600
Text Notes 3450 4050 1    50   ~ 0
CMS 1206
Wire Notes Line
	2700 3250 2700 4400
Wire Notes Line
	2700 4400 4600 4400
Wire Notes Line
	4600 4400 4600 3250
Wire Notes Line
	4600 3250 2700 3250
Wire Wire Line
	2950 3600 3500 3600
Text Label 2950 3600 0    50   ~ 0
PWR_EN
$Comp
L power:+3V3 #PWR0108
U 1 1 5EB3893E
P 3500 4050
F 0 "#PWR0108" H 3500 3900 50  0001 C CNN
F 1 "+3V3" H 3400 4200 50  0000 L CNN
F 2 "" H 3500 4050 50  0001 C CNN
F 3 "" H 3500 4050 50  0001 C CNN
	1    3500 4050
	-1   0    0    1   
$EndComp
Wire Wire Line
	3500 4050 3500 3950
$EndSCHEMATC
