G04 #@! TF.GenerationSoftware,KiCad,Pcbnew,(5.1.4)-1*
G04 #@! TF.CreationDate,2020-05-05T13:32:26+02:00*
G04 #@! TF.ProjectId,PGHM_PCB,5047484d-5f50-4434-922e-6b696361645f,rev?*
G04 #@! TF.SameCoordinates,Original*
G04 #@! TF.FileFunction,Copper,L1,Top*
G04 #@! TF.FilePolarity,Positive*
%FSLAX46Y46*%
G04 Gerber Fmt 4.6, Leading zero omitted, Abs format (unit mm)*
G04 Created by KiCad (PCBNEW (5.1.4)-1) date 2020-05-05 13:32:26*
%MOMM*%
%LPD*%
G04 APERTURE LIST*
%ADD10C,1.800860*%
%ADD11C,3.600000*%
%ADD12C,2.000000*%
%ADD13C,1.998980*%
%ADD14R,1.998980X1.998980*%
%ADD15C,1.520000*%
%ADD16R,1.520000X1.520000*%
%ADD17C,0.500000*%
G04 APERTURE END LIST*
D10*
X52578000Y-33401000D03*
X52578000Y-40640000D03*
D11*
X57700000Y-27140000D03*
X57700000Y-79140000D03*
D12*
X49700000Y-50100000D03*
D13*
X42080000Y-47560000D03*
X44620000Y-47560000D03*
X47160000Y-47560000D03*
X49700000Y-47560000D03*
D14*
X52240000Y-47560000D03*
D13*
X52240000Y-50100000D03*
X47160000Y-50100000D03*
X44620000Y-50100000D03*
X42080000Y-50100000D03*
D15*
X40005000Y-41910000D03*
X40005000Y-39370000D03*
D16*
X40005000Y-44450000D03*
D12*
X50800000Y-57095000D03*
X50800000Y-61595000D03*
X57300000Y-57095000D03*
X57300000Y-61595000D03*
X45085000Y-61650000D03*
X45085000Y-57150000D03*
X38585000Y-61650000D03*
X38585000Y-57150000D03*
D17*
X49385787Y-61595000D02*
X48000000Y-60209213D01*
X50800000Y-61595000D02*
X49385787Y-61595000D01*
X48000000Y-60209213D02*
X48000000Y-55800000D01*
X48000000Y-55800000D02*
X44600000Y-52400000D01*
X44600000Y-52400000D02*
X44600000Y-50000000D01*
X52240000Y-46060510D02*
X50579490Y-44400000D01*
X52240000Y-47560000D02*
X52240000Y-46060510D01*
X50579490Y-44400000D02*
X40000000Y-44400000D01*
M02*
