%FSLAX45Y45*%
G04 Gerber Fmt 4.5, Leading zero omitted, Abs format (unit mm)*
G04 Created by KiCad (PCBNEW (5.1.4)-1) date 2020-05-05 13:33:13*
%MOMM*%
%LPD*%
G04 APERTURE LIST*
%ADD10C,0.050000*%
%ADD11C,0.200000*%
%ADD12C,0.300000*%
G04 APERTURE END LIST*
D10*
X3560000Y-7780000D02*
X3900000Y-8160000D01*
X3560000Y-7780000D02*
X3560000Y-7680000D01*
X4960000Y-8160000D02*
X3900000Y-8160000D01*
X3560000Y-6580000D02*
X3560000Y-7680000D01*
X3900000Y-2460000D02*
X5780000Y-2459168D01*
X3560000Y-2840000D02*
X3900000Y-2460000D01*
X3560000Y-6580000D02*
X3560000Y-2840000D01*
X5629000Y-8163000D02*
X4960000Y-8160000D01*
X5764000Y-8163000D02*
X5629000Y-8163000D01*
X6020000Y-7860000D02*
X6018972Y-7904209D01*
X6018972Y-7904209D02*
G75*
G02X5764000Y-8163000I-254972J-3791D01*
G01*
X5780000Y-2459168D02*
G75*
G02X6020000Y-2720000I0J-240832D01*
G01*
X6020000Y-2720000D02*
X6020000Y-7860000D01*
D11*
X3960500Y-3897000D02*
X4040500Y-3977000D01*
X4040500Y-3897000D02*
X3960500Y-3977000D01*
X3960500Y-4151000D02*
X4040500Y-4231000D01*
X4040500Y-4151000D02*
X3960500Y-4231000D01*
X3960500Y-4405000D02*
X4040500Y-4485000D01*
X4040500Y-4405000D02*
X3960500Y-4485000D01*
X4248640Y-4756000D02*
G75*
G03X4248640Y-4756000I-40640J0D01*
G01*
X4248640Y-5010000D02*
G75*
G03X4248640Y-5010000I-40640J0D01*
G01*
X4502640Y-4756000D02*
G75*
G03X4502640Y-4756000I-40640J0D01*
G01*
X4502640Y-5010000D02*
G75*
G03X4502640Y-5010000I-40640J0D01*
G01*
X4756640Y-4756000D02*
G75*
G03X4756640Y-4756000I-40640J0D01*
G01*
X4756640Y-5010000D02*
G75*
G03X4756640Y-5010000I-40640J0D01*
G01*
X5010640Y-4756000D02*
G75*
G03X5010640Y-4756000I-40640J0D01*
G01*
X5010640Y-5010000D02*
G75*
G03X5010640Y-5010000I-40640J0D01*
G01*
X5264640Y-4756000D02*
G75*
G03X5264640Y-4756000I-40640J0D01*
G01*
X5264640Y-5010000D02*
G75*
G03X5264640Y-5010000I-40640J0D01*
G01*
X5298440Y-3340100D02*
G75*
G03X5298440Y-3340100I-40640J0D01*
G01*
X5298440Y-4064000D02*
G75*
G03X5298440Y-4064000I-40640J0D01*
G01*
X3858500Y-5660000D02*
X3858500Y-5770000D01*
X3803500Y-5715000D02*
X3913500Y-5715000D01*
X3858500Y-6110000D02*
X3858500Y-6220000D01*
X3803500Y-6165000D02*
X3913500Y-6165000D01*
X4508500Y-5660000D02*
X4508500Y-5770000D01*
X4453500Y-5715000D02*
X4563500Y-5715000D01*
X4508500Y-6110000D02*
X4508500Y-6220000D01*
X4453500Y-6165000D02*
X4563500Y-6165000D01*
X5080000Y-5654500D02*
X5080000Y-5764500D01*
X5025000Y-5709500D02*
X5135000Y-5709500D01*
X5080000Y-6104500D02*
X5080000Y-6214500D01*
X5025000Y-6159500D02*
X5135000Y-6159500D01*
X5730000Y-5654500D02*
X5730000Y-5764500D01*
X5675000Y-5709500D02*
X5785000Y-5709500D01*
X5730000Y-6104500D02*
X5730000Y-6214500D01*
X5675000Y-6159500D02*
X5785000Y-6159500D01*
X5891977Y-2835977D02*
X5891977Y-2592023D01*
X5648023Y-2592023D01*
X5648023Y-2835977D01*
X5891977Y-2835977D01*
X5891977Y-8035977D02*
X5891977Y-7792023D01*
X5648023Y-7792023D01*
X5648023Y-8035977D01*
X5891977Y-8035977D01*
D12*
X3843928Y-8631214D02*
X3843928Y-8331214D01*
X3915357Y-8331214D01*
X3958214Y-8345500D01*
X3986786Y-8374071D01*
X4001071Y-8402643D01*
X4015357Y-8459786D01*
X4015357Y-8502643D01*
X4001071Y-8559786D01*
X3986786Y-8588357D01*
X3958214Y-8616929D01*
X3915357Y-8631214D01*
X3843928Y-8631214D01*
X4143928Y-8631214D02*
X4143928Y-8431214D01*
X4143928Y-8488357D02*
X4158214Y-8459786D01*
X4172500Y-8445500D01*
X4201071Y-8431214D01*
X4229643Y-8431214D01*
X4329643Y-8631214D02*
X4329643Y-8431214D01*
X4329643Y-8331214D02*
X4315357Y-8345500D01*
X4329643Y-8359786D01*
X4343928Y-8345500D01*
X4329643Y-8331214D01*
X4329643Y-8359786D01*
X4515357Y-8631214D02*
X4486786Y-8616929D01*
X4472500Y-8588357D01*
X4472500Y-8331214D01*
X4672500Y-8631214D02*
X4643928Y-8616929D01*
X4629643Y-8588357D01*
X4629643Y-8331214D01*
X5015357Y-8631214D02*
X5015357Y-8331214D01*
X5115357Y-8545500D01*
X5215357Y-8331214D01*
X5215357Y-8631214D01*
X5486786Y-8631214D02*
X5486786Y-8474072D01*
X5472500Y-8445500D01*
X5443928Y-8431214D01*
X5386786Y-8431214D01*
X5358214Y-8445500D01*
X5486786Y-8616929D02*
X5458214Y-8631214D01*
X5386786Y-8631214D01*
X5358214Y-8616929D01*
X5343928Y-8588357D01*
X5343928Y-8559786D01*
X5358214Y-8531214D01*
X5386786Y-8516929D01*
X5458214Y-8516929D01*
X5486786Y-8502643D01*
X5629643Y-8431214D02*
X5629643Y-8731214D01*
X5629643Y-8445500D02*
X5658214Y-8431214D01*
X5715357Y-8431214D01*
X5743928Y-8445500D01*
X5758214Y-8459786D01*
X5772500Y-8488357D01*
X5772500Y-8574072D01*
X5758214Y-8602643D01*
X5743928Y-8616929D01*
X5715357Y-8631214D01*
X5658214Y-8631214D01*
X5629643Y-8616929D01*
X5901071Y-8602643D02*
X5915357Y-8616929D01*
X5901071Y-8631214D01*
X5886786Y-8616929D01*
X5901071Y-8602643D01*
X5901071Y-8631214D01*
X5901071Y-8445500D02*
X5915357Y-8459786D01*
X5901071Y-8474072D01*
X5886786Y-8459786D01*
X5901071Y-8445500D01*
X5901071Y-8474072D01*
X3477500Y-9085500D02*
X3557500Y-9165500D01*
X3557500Y-9085500D02*
X3477500Y-9165500D01*
X3901071Y-8961214D02*
X3929643Y-8961214D01*
X3958214Y-8975500D01*
X3972500Y-8989786D01*
X3986786Y-9018357D01*
X4001071Y-9075500D01*
X4001071Y-9146929D01*
X3986786Y-9204072D01*
X3972500Y-9232643D01*
X3958214Y-9246929D01*
X3929643Y-9261214D01*
X3901071Y-9261214D01*
X3872500Y-9246929D01*
X3858214Y-9232643D01*
X3843928Y-9204072D01*
X3829643Y-9146929D01*
X3829643Y-9075500D01*
X3843928Y-9018357D01*
X3858214Y-8989786D01*
X3872500Y-8975500D01*
X3901071Y-8961214D01*
X4129643Y-9232643D02*
X4143928Y-9246929D01*
X4129643Y-9261214D01*
X4115357Y-9246929D01*
X4129643Y-9232643D01*
X4129643Y-9261214D01*
X4315357Y-9089786D02*
X4286786Y-9075500D01*
X4272500Y-9061214D01*
X4258214Y-9032643D01*
X4258214Y-9018357D01*
X4272500Y-8989786D01*
X4286786Y-8975500D01*
X4315357Y-8961214D01*
X4372500Y-8961214D01*
X4401071Y-8975500D01*
X4415357Y-8989786D01*
X4429643Y-9018357D01*
X4429643Y-9032643D01*
X4415357Y-9061214D01*
X4401071Y-9075500D01*
X4372500Y-9089786D01*
X4315357Y-9089786D01*
X4286786Y-9104072D01*
X4272500Y-9118357D01*
X4258214Y-9146929D01*
X4258214Y-9204072D01*
X4272500Y-9232643D01*
X4286786Y-9246929D01*
X4315357Y-9261214D01*
X4372500Y-9261214D01*
X4401071Y-9246929D01*
X4415357Y-9232643D01*
X4429643Y-9204072D01*
X4429643Y-9146929D01*
X4415357Y-9118357D01*
X4401071Y-9104072D01*
X4372500Y-9089786D01*
X4615357Y-8961214D02*
X4643928Y-8961214D01*
X4672500Y-8975500D01*
X4686786Y-8989786D01*
X4701071Y-9018357D01*
X4715357Y-9075500D01*
X4715357Y-9146929D01*
X4701071Y-9204072D01*
X4686786Y-9232643D01*
X4672500Y-9246929D01*
X4643928Y-9261214D01*
X4615357Y-9261214D01*
X4586786Y-9246929D01*
X4572500Y-9232643D01*
X4558214Y-9204072D01*
X4543928Y-9146929D01*
X4543928Y-9075500D01*
X4558214Y-9018357D01*
X4572500Y-8989786D01*
X4586786Y-8975500D01*
X4615357Y-8961214D01*
X4843928Y-9261214D02*
X4843928Y-9061214D01*
X4843928Y-9089786D02*
X4858214Y-9075500D01*
X4886786Y-9061214D01*
X4929643Y-9061214D01*
X4958214Y-9075500D01*
X4972500Y-9104072D01*
X4972500Y-9261214D01*
X4972500Y-9104072D02*
X4986786Y-9075500D01*
X5015357Y-9061214D01*
X5058214Y-9061214D01*
X5086786Y-9075500D01*
X5101071Y-9104072D01*
X5101071Y-9261214D01*
X5243928Y-9261214D02*
X5243928Y-9061214D01*
X5243928Y-9089786D02*
X5258214Y-9075500D01*
X5286786Y-9061214D01*
X5329643Y-9061214D01*
X5358214Y-9075500D01*
X5372500Y-9104072D01*
X5372500Y-9261214D01*
X5372500Y-9104072D02*
X5386786Y-9075500D01*
X5415357Y-9061214D01*
X5458214Y-9061214D01*
X5486786Y-9075500D01*
X5501071Y-9104072D01*
X5501071Y-9261214D01*
X6086786Y-8946929D02*
X5829643Y-9332643D01*
X6472500Y-8961214D02*
X6501071Y-8961214D01*
X6529643Y-8975500D01*
X6543928Y-8989786D01*
X6558214Y-9018357D01*
X6572500Y-9075500D01*
X6572500Y-9146929D01*
X6558214Y-9204072D01*
X6543928Y-9232643D01*
X6529643Y-9246929D01*
X6501071Y-9261214D01*
X6472500Y-9261214D01*
X6443928Y-9246929D01*
X6429643Y-9232643D01*
X6415357Y-9204072D01*
X6401071Y-9146929D01*
X6401071Y-9075500D01*
X6415357Y-9018357D01*
X6429643Y-8989786D01*
X6443928Y-8975500D01*
X6472500Y-8961214D01*
X6701071Y-9232643D02*
X6715357Y-9246929D01*
X6701071Y-9261214D01*
X6686786Y-9246929D01*
X6701071Y-9232643D01*
X6701071Y-9261214D01*
X6901071Y-8961214D02*
X6929643Y-8961214D01*
X6958214Y-8975500D01*
X6972500Y-8989786D01*
X6986786Y-9018357D01*
X7001071Y-9075500D01*
X7001071Y-9146929D01*
X6986786Y-9204072D01*
X6972500Y-9232643D01*
X6958214Y-9246929D01*
X6929643Y-9261214D01*
X6901071Y-9261214D01*
X6872500Y-9246929D01*
X6858214Y-9232643D01*
X6843928Y-9204072D01*
X6829643Y-9146929D01*
X6829643Y-9075500D01*
X6843928Y-9018357D01*
X6858214Y-8989786D01*
X6872500Y-8975500D01*
X6901071Y-8961214D01*
X7101071Y-8961214D02*
X7286786Y-8961214D01*
X7186786Y-9075500D01*
X7229643Y-9075500D01*
X7258214Y-9089786D01*
X7272500Y-9104072D01*
X7286786Y-9132643D01*
X7286786Y-9204072D01*
X7272500Y-9232643D01*
X7258214Y-9246929D01*
X7229643Y-9261214D01*
X7143928Y-9261214D01*
X7115357Y-9246929D01*
X7101071Y-9232643D01*
X7572500Y-9261214D02*
X7401071Y-9261214D01*
X7486786Y-9261214D02*
X7486786Y-8961214D01*
X7458214Y-9004072D01*
X7429643Y-9032643D01*
X7401071Y-9046929D01*
X7686786Y-8961214D02*
X7686786Y-9018357D01*
X7801071Y-8961214D02*
X7801071Y-9018357D01*
X8243928Y-9375500D02*
X8229643Y-9361214D01*
X8201071Y-9318357D01*
X8186786Y-9289786D01*
X8172500Y-9246929D01*
X8158214Y-9175500D01*
X8158214Y-9118357D01*
X8172500Y-9046929D01*
X8186786Y-9004072D01*
X8201071Y-8975500D01*
X8229643Y-8932643D01*
X8243928Y-8918357D01*
X8329643Y-8961214D02*
X8515357Y-8961214D01*
X8415357Y-9075500D01*
X8458214Y-9075500D01*
X8486786Y-9089786D01*
X8501071Y-9104072D01*
X8515357Y-9132643D01*
X8515357Y-9204072D01*
X8501071Y-9232643D01*
X8486786Y-9246929D01*
X8458214Y-9261214D01*
X8372500Y-9261214D01*
X8343928Y-9246929D01*
X8329643Y-9232643D01*
X8872500Y-9261214D02*
X8872500Y-8961214D01*
X9001071Y-9261214D02*
X9001071Y-9104072D01*
X8986786Y-9075500D01*
X8958214Y-9061214D01*
X8915357Y-9061214D01*
X8886786Y-9075500D01*
X8872500Y-9089786D01*
X9186786Y-9261214D02*
X9158214Y-9246929D01*
X9143928Y-9232643D01*
X9129643Y-9204072D01*
X9129643Y-9118357D01*
X9143928Y-9089786D01*
X9158214Y-9075500D01*
X9186786Y-9061214D01*
X9229643Y-9061214D01*
X9258214Y-9075500D01*
X9272500Y-9089786D01*
X9286786Y-9118357D01*
X9286786Y-9204072D01*
X9272500Y-9232643D01*
X9258214Y-9246929D01*
X9229643Y-9261214D01*
X9186786Y-9261214D01*
X9458214Y-9261214D02*
X9429643Y-9246929D01*
X9415357Y-9218357D01*
X9415357Y-8961214D01*
X9686786Y-9246929D02*
X9658214Y-9261214D01*
X9601071Y-9261214D01*
X9572500Y-9246929D01*
X9558214Y-9218357D01*
X9558214Y-9104072D01*
X9572500Y-9075500D01*
X9601071Y-9061214D01*
X9658214Y-9061214D01*
X9686786Y-9075500D01*
X9701071Y-9104072D01*
X9701071Y-9132643D01*
X9558214Y-9161214D01*
X9815357Y-9246929D02*
X9843928Y-9261214D01*
X9901071Y-9261214D01*
X9929643Y-9246929D01*
X9943928Y-9218357D01*
X9943928Y-9204072D01*
X9929643Y-9175500D01*
X9901071Y-9161214D01*
X9858214Y-9161214D01*
X9829643Y-9146929D01*
X9815357Y-9118357D01*
X9815357Y-9104072D01*
X9829643Y-9075500D01*
X9858214Y-9061214D01*
X9901071Y-9061214D01*
X9929643Y-9075500D01*
X10043928Y-9375500D02*
X10058214Y-9361214D01*
X10086786Y-9318357D01*
X10101071Y-9289786D01*
X10115357Y-9246929D01*
X10129643Y-9175500D01*
X10129643Y-9118357D01*
X10115357Y-9046929D01*
X10101071Y-9004072D01*
X10086786Y-8975500D01*
X10058214Y-8932643D01*
X10043928Y-8918357D01*
X3557500Y-9521500D02*
G75*
G03X3557500Y-9521500I-40640J0D01*
G01*
X3901071Y-9357214D02*
X3929643Y-9357214D01*
X3958214Y-9371500D01*
X3972500Y-9385786D01*
X3986786Y-9414357D01*
X4001071Y-9471500D01*
X4001071Y-9542929D01*
X3986786Y-9600072D01*
X3972500Y-9628643D01*
X3958214Y-9642929D01*
X3929643Y-9657214D01*
X3901071Y-9657214D01*
X3872500Y-9642929D01*
X3858214Y-9628643D01*
X3843928Y-9600072D01*
X3829643Y-9542929D01*
X3829643Y-9471500D01*
X3843928Y-9414357D01*
X3858214Y-9385786D01*
X3872500Y-9371500D01*
X3901071Y-9357214D01*
X4129643Y-9628643D02*
X4143928Y-9642929D01*
X4129643Y-9657214D01*
X4115357Y-9642929D01*
X4129643Y-9628643D01*
X4129643Y-9657214D01*
X4315357Y-9485786D02*
X4286786Y-9471500D01*
X4272500Y-9457214D01*
X4258214Y-9428643D01*
X4258214Y-9414357D01*
X4272500Y-9385786D01*
X4286786Y-9371500D01*
X4315357Y-9357214D01*
X4372500Y-9357214D01*
X4401071Y-9371500D01*
X4415357Y-9385786D01*
X4429643Y-9414357D01*
X4429643Y-9428643D01*
X4415357Y-9457214D01*
X4401071Y-9471500D01*
X4372500Y-9485786D01*
X4315357Y-9485786D01*
X4286786Y-9500072D01*
X4272500Y-9514357D01*
X4258214Y-9542929D01*
X4258214Y-9600072D01*
X4272500Y-9628643D01*
X4286786Y-9642929D01*
X4315357Y-9657214D01*
X4372500Y-9657214D01*
X4401071Y-9642929D01*
X4415357Y-9628643D01*
X4429643Y-9600072D01*
X4429643Y-9542929D01*
X4415357Y-9514357D01*
X4401071Y-9500072D01*
X4372500Y-9485786D01*
X4715357Y-9657214D02*
X4543928Y-9657214D01*
X4629643Y-9657214D02*
X4629643Y-9357214D01*
X4601071Y-9400072D01*
X4572500Y-9428643D01*
X4543928Y-9442929D01*
X4843928Y-9657214D02*
X4843928Y-9457214D01*
X4843928Y-9485786D02*
X4858214Y-9471500D01*
X4886786Y-9457214D01*
X4929643Y-9457214D01*
X4958214Y-9471500D01*
X4972500Y-9500072D01*
X4972500Y-9657214D01*
X4972500Y-9500072D02*
X4986786Y-9471500D01*
X5015357Y-9457214D01*
X5058214Y-9457214D01*
X5086786Y-9471500D01*
X5101071Y-9500072D01*
X5101071Y-9657214D01*
X5243928Y-9657214D02*
X5243928Y-9457214D01*
X5243928Y-9485786D02*
X5258214Y-9471500D01*
X5286786Y-9457214D01*
X5329643Y-9457214D01*
X5358214Y-9471500D01*
X5372500Y-9500072D01*
X5372500Y-9657214D01*
X5372500Y-9500072D02*
X5386786Y-9471500D01*
X5415357Y-9457214D01*
X5458214Y-9457214D01*
X5486786Y-9471500D01*
X5501071Y-9500072D01*
X5501071Y-9657214D01*
X6086786Y-9342929D02*
X5829643Y-9728643D01*
X6472500Y-9357214D02*
X6501071Y-9357214D01*
X6529643Y-9371500D01*
X6543928Y-9385786D01*
X6558214Y-9414357D01*
X6572500Y-9471500D01*
X6572500Y-9542929D01*
X6558214Y-9600072D01*
X6543928Y-9628643D01*
X6529643Y-9642929D01*
X6501071Y-9657214D01*
X6472500Y-9657214D01*
X6443928Y-9642929D01*
X6429643Y-9628643D01*
X6415357Y-9600072D01*
X6401071Y-9542929D01*
X6401071Y-9471500D01*
X6415357Y-9414357D01*
X6429643Y-9385786D01*
X6443928Y-9371500D01*
X6472500Y-9357214D01*
X6701071Y-9628643D02*
X6715357Y-9642929D01*
X6701071Y-9657214D01*
X6686786Y-9642929D01*
X6701071Y-9628643D01*
X6701071Y-9657214D01*
X6901071Y-9357214D02*
X6929643Y-9357214D01*
X6958214Y-9371500D01*
X6972500Y-9385786D01*
X6986786Y-9414357D01*
X7001071Y-9471500D01*
X7001071Y-9542929D01*
X6986786Y-9600072D01*
X6972500Y-9628643D01*
X6958214Y-9642929D01*
X6929643Y-9657214D01*
X6901071Y-9657214D01*
X6872500Y-9642929D01*
X6858214Y-9628643D01*
X6843928Y-9600072D01*
X6829643Y-9542929D01*
X6829643Y-9471500D01*
X6843928Y-9414357D01*
X6858214Y-9385786D01*
X6872500Y-9371500D01*
X6901071Y-9357214D01*
X7101071Y-9357214D02*
X7286786Y-9357214D01*
X7186786Y-9471500D01*
X7229643Y-9471500D01*
X7258214Y-9485786D01*
X7272500Y-9500072D01*
X7286786Y-9528643D01*
X7286786Y-9600072D01*
X7272500Y-9628643D01*
X7258214Y-9642929D01*
X7229643Y-9657214D01*
X7143928Y-9657214D01*
X7115357Y-9642929D01*
X7101071Y-9628643D01*
X7401071Y-9385786D02*
X7415357Y-9371500D01*
X7443928Y-9357214D01*
X7515357Y-9357214D01*
X7543928Y-9371500D01*
X7558214Y-9385786D01*
X7572500Y-9414357D01*
X7572500Y-9442929D01*
X7558214Y-9485786D01*
X7386786Y-9657214D01*
X7572500Y-9657214D01*
X7686786Y-9357214D02*
X7686786Y-9414357D01*
X7801071Y-9357214D02*
X7801071Y-9414357D01*
X8243928Y-9771500D02*
X8229643Y-9757214D01*
X8201071Y-9714357D01*
X8186786Y-9685786D01*
X8172500Y-9642929D01*
X8158214Y-9571500D01*
X8158214Y-9514357D01*
X8172500Y-9442929D01*
X8186786Y-9400072D01*
X8201071Y-9371500D01*
X8229643Y-9328643D01*
X8243928Y-9314357D01*
X8515357Y-9657214D02*
X8343928Y-9657214D01*
X8429643Y-9657214D02*
X8429643Y-9357214D01*
X8401071Y-9400072D01*
X8372500Y-9428643D01*
X8343928Y-9442929D01*
X8629643Y-9385786D02*
X8643928Y-9371500D01*
X8672500Y-9357214D01*
X8743928Y-9357214D01*
X8772500Y-9371500D01*
X8786786Y-9385786D01*
X8801071Y-9414357D01*
X8801071Y-9442929D01*
X8786786Y-9485786D01*
X8615357Y-9657214D01*
X8801071Y-9657214D01*
X9158214Y-9657214D02*
X9158214Y-9357214D01*
X9286786Y-9657214D02*
X9286786Y-9500072D01*
X9272500Y-9471500D01*
X9243928Y-9457214D01*
X9201071Y-9457214D01*
X9172500Y-9471500D01*
X9158214Y-9485786D01*
X9472500Y-9657214D02*
X9443928Y-9642929D01*
X9429643Y-9628643D01*
X9415357Y-9600072D01*
X9415357Y-9514357D01*
X9429643Y-9485786D01*
X9443928Y-9471500D01*
X9472500Y-9457214D01*
X9515357Y-9457214D01*
X9543928Y-9471500D01*
X9558214Y-9485786D01*
X9572500Y-9514357D01*
X9572500Y-9600072D01*
X9558214Y-9628643D01*
X9543928Y-9642929D01*
X9515357Y-9657214D01*
X9472500Y-9657214D01*
X9743928Y-9657214D02*
X9715357Y-9642929D01*
X9701071Y-9614357D01*
X9701071Y-9357214D01*
X9972500Y-9642929D02*
X9943928Y-9657214D01*
X9886786Y-9657214D01*
X9858214Y-9642929D01*
X9843928Y-9614357D01*
X9843928Y-9500072D01*
X9858214Y-9471500D01*
X9886786Y-9457214D01*
X9943928Y-9457214D01*
X9972500Y-9471500D01*
X9986786Y-9500072D01*
X9986786Y-9528643D01*
X9843928Y-9557214D01*
X10101071Y-9642929D02*
X10129643Y-9657214D01*
X10186786Y-9657214D01*
X10215357Y-9642929D01*
X10229643Y-9614357D01*
X10229643Y-9600072D01*
X10215357Y-9571500D01*
X10186786Y-9557214D01*
X10143928Y-9557214D01*
X10115357Y-9542929D01*
X10101071Y-9514357D01*
X10101071Y-9500072D01*
X10115357Y-9471500D01*
X10143928Y-9457214D01*
X10186786Y-9457214D01*
X10215357Y-9471500D01*
X10329643Y-9771500D02*
X10343928Y-9757214D01*
X10372500Y-9714357D01*
X10386786Y-9685786D01*
X10401071Y-9642929D01*
X10415357Y-9571500D01*
X10415357Y-9514357D01*
X10401071Y-9442929D01*
X10386786Y-9400072D01*
X10372500Y-9371500D01*
X10343928Y-9328643D01*
X10329643Y-9314357D01*
X3502500Y-9862500D02*
X3502500Y-9972500D01*
X3447500Y-9917500D02*
X3557500Y-9917500D01*
X4001071Y-10053214D02*
X3829643Y-10053214D01*
X3915357Y-10053214D02*
X3915357Y-9753214D01*
X3886786Y-9796072D01*
X3858214Y-9824643D01*
X3829643Y-9838929D01*
X4129643Y-10024643D02*
X4143928Y-10038929D01*
X4129643Y-10053214D01*
X4115357Y-10038929D01*
X4129643Y-10024643D01*
X4129643Y-10053214D01*
X4429643Y-10053214D02*
X4258214Y-10053214D01*
X4343928Y-10053214D02*
X4343928Y-9753214D01*
X4315357Y-9796072D01*
X4286786Y-9824643D01*
X4258214Y-9838929D01*
X4615357Y-9753214D02*
X4643928Y-9753214D01*
X4672500Y-9767500D01*
X4686786Y-9781786D01*
X4701071Y-9810357D01*
X4715357Y-9867500D01*
X4715357Y-9938929D01*
X4701071Y-9996072D01*
X4686786Y-10024643D01*
X4672500Y-10038929D01*
X4643928Y-10053214D01*
X4615357Y-10053214D01*
X4586786Y-10038929D01*
X4572500Y-10024643D01*
X4558214Y-9996072D01*
X4543928Y-9938929D01*
X4543928Y-9867500D01*
X4558214Y-9810357D01*
X4572500Y-9781786D01*
X4586786Y-9767500D01*
X4615357Y-9753214D01*
X4843928Y-10053214D02*
X4843928Y-9853214D01*
X4843928Y-9881786D02*
X4858214Y-9867500D01*
X4886786Y-9853214D01*
X4929643Y-9853214D01*
X4958214Y-9867500D01*
X4972500Y-9896072D01*
X4972500Y-10053214D01*
X4972500Y-9896072D02*
X4986786Y-9867500D01*
X5015357Y-9853214D01*
X5058214Y-9853214D01*
X5086786Y-9867500D01*
X5101071Y-9896072D01*
X5101071Y-10053214D01*
X5243928Y-10053214D02*
X5243928Y-9853214D01*
X5243928Y-9881786D02*
X5258214Y-9867500D01*
X5286786Y-9853214D01*
X5329643Y-9853214D01*
X5358214Y-9867500D01*
X5372500Y-9896072D01*
X5372500Y-10053214D01*
X5372500Y-9896072D02*
X5386786Y-9867500D01*
X5415357Y-9853214D01*
X5458214Y-9853214D01*
X5486786Y-9867500D01*
X5501071Y-9896072D01*
X5501071Y-10053214D01*
X6086786Y-9738929D02*
X5829643Y-10124643D01*
X6472500Y-9753214D02*
X6501071Y-9753214D01*
X6529643Y-9767500D01*
X6543928Y-9781786D01*
X6558214Y-9810357D01*
X6572500Y-9867500D01*
X6572500Y-9938929D01*
X6558214Y-9996072D01*
X6543928Y-10024643D01*
X6529643Y-10038929D01*
X6501071Y-10053214D01*
X6472500Y-10053214D01*
X6443928Y-10038929D01*
X6429643Y-10024643D01*
X6415357Y-9996072D01*
X6401071Y-9938929D01*
X6401071Y-9867500D01*
X6415357Y-9810357D01*
X6429643Y-9781786D01*
X6443928Y-9767500D01*
X6472500Y-9753214D01*
X6701071Y-10024643D02*
X6715357Y-10038929D01*
X6701071Y-10053214D01*
X6686786Y-10038929D01*
X6701071Y-10024643D01*
X6701071Y-10053214D01*
X6901071Y-9753214D02*
X6929643Y-9753214D01*
X6958214Y-9767500D01*
X6972500Y-9781786D01*
X6986786Y-9810357D01*
X7001071Y-9867500D01*
X7001071Y-9938929D01*
X6986786Y-9996072D01*
X6972500Y-10024643D01*
X6958214Y-10038929D01*
X6929643Y-10053214D01*
X6901071Y-10053214D01*
X6872500Y-10038929D01*
X6858214Y-10024643D01*
X6843928Y-9996072D01*
X6829643Y-9938929D01*
X6829643Y-9867500D01*
X6843928Y-9810357D01*
X6858214Y-9781786D01*
X6872500Y-9767500D01*
X6901071Y-9753214D01*
X7258214Y-9853214D02*
X7258214Y-10053214D01*
X7186786Y-9738929D02*
X7115357Y-9953214D01*
X7301071Y-9953214D01*
X7386786Y-9753214D02*
X7572500Y-9753214D01*
X7472500Y-9867500D01*
X7515357Y-9867500D01*
X7543928Y-9881786D01*
X7558214Y-9896072D01*
X7572500Y-9924643D01*
X7572500Y-9996072D01*
X7558214Y-10024643D01*
X7543928Y-10038929D01*
X7515357Y-10053214D01*
X7429643Y-10053214D01*
X7401071Y-10038929D01*
X7386786Y-10024643D01*
X7686786Y-9753214D02*
X7686786Y-9810357D01*
X7801071Y-9753214D02*
X7801071Y-9810357D01*
X8243928Y-10167500D02*
X8229643Y-10153214D01*
X8201071Y-10110357D01*
X8186786Y-10081786D01*
X8172500Y-10038929D01*
X8158214Y-9967500D01*
X8158214Y-9910357D01*
X8172500Y-9838929D01*
X8186786Y-9796072D01*
X8201071Y-9767500D01*
X8229643Y-9724643D01*
X8243928Y-9710357D01*
X8401071Y-9881786D02*
X8372500Y-9867500D01*
X8358214Y-9853214D01*
X8343928Y-9824643D01*
X8343928Y-9810357D01*
X8358214Y-9781786D01*
X8372500Y-9767500D01*
X8401071Y-9753214D01*
X8458214Y-9753214D01*
X8486786Y-9767500D01*
X8501071Y-9781786D01*
X8515357Y-9810357D01*
X8515357Y-9824643D01*
X8501071Y-9853214D01*
X8486786Y-9867500D01*
X8458214Y-9881786D01*
X8401071Y-9881786D01*
X8372500Y-9896072D01*
X8358214Y-9910357D01*
X8343928Y-9938929D01*
X8343928Y-9996072D01*
X8358214Y-10024643D01*
X8372500Y-10038929D01*
X8401071Y-10053214D01*
X8458214Y-10053214D01*
X8486786Y-10038929D01*
X8501071Y-10024643D01*
X8515357Y-9996072D01*
X8515357Y-9938929D01*
X8501071Y-9910357D01*
X8486786Y-9896072D01*
X8458214Y-9881786D01*
X8872500Y-10053214D02*
X8872500Y-9753214D01*
X9001071Y-10053214D02*
X9001071Y-9896072D01*
X8986786Y-9867500D01*
X8958214Y-9853214D01*
X8915357Y-9853214D01*
X8886786Y-9867500D01*
X8872500Y-9881786D01*
X9186786Y-10053214D02*
X9158214Y-10038929D01*
X9143928Y-10024643D01*
X9129643Y-9996072D01*
X9129643Y-9910357D01*
X9143928Y-9881786D01*
X9158214Y-9867500D01*
X9186786Y-9853214D01*
X9229643Y-9853214D01*
X9258214Y-9867500D01*
X9272500Y-9881786D01*
X9286786Y-9910357D01*
X9286786Y-9996072D01*
X9272500Y-10024643D01*
X9258214Y-10038929D01*
X9229643Y-10053214D01*
X9186786Y-10053214D01*
X9458214Y-10053214D02*
X9429643Y-10038929D01*
X9415357Y-10010357D01*
X9415357Y-9753214D01*
X9686786Y-10038929D02*
X9658214Y-10053214D01*
X9601071Y-10053214D01*
X9572500Y-10038929D01*
X9558214Y-10010357D01*
X9558214Y-9896072D01*
X9572500Y-9867500D01*
X9601071Y-9853214D01*
X9658214Y-9853214D01*
X9686786Y-9867500D01*
X9701071Y-9896072D01*
X9701071Y-9924643D01*
X9558214Y-9953214D01*
X9815357Y-10038929D02*
X9843928Y-10053214D01*
X9901071Y-10053214D01*
X9929643Y-10038929D01*
X9943928Y-10010357D01*
X9943928Y-9996072D01*
X9929643Y-9967500D01*
X9901071Y-9953214D01*
X9858214Y-9953214D01*
X9829643Y-9938929D01*
X9815357Y-9910357D01*
X9815357Y-9896072D01*
X9829643Y-9867500D01*
X9858214Y-9853214D01*
X9901071Y-9853214D01*
X9929643Y-9867500D01*
X10043928Y-10167500D02*
X10058214Y-10153214D01*
X10086786Y-10110357D01*
X10101071Y-10081786D01*
X10115357Y-10038929D01*
X10129643Y-9967500D01*
X10129643Y-9910357D01*
X10115357Y-9838929D01*
X10101071Y-9796072D01*
X10086786Y-9767500D01*
X10058214Y-9724643D01*
X10043928Y-9710357D01*
X3506977Y-10435477D02*
X3506977Y-10191523D01*
X3263023Y-10191523D01*
X3263023Y-10435477D01*
X3506977Y-10435477D01*
X3815357Y-10149214D02*
X4001071Y-10149214D01*
X3901071Y-10263500D01*
X3943928Y-10263500D01*
X3972500Y-10277786D01*
X3986786Y-10292072D01*
X4001071Y-10320643D01*
X4001071Y-10392072D01*
X3986786Y-10420643D01*
X3972500Y-10434929D01*
X3943928Y-10449214D01*
X3858214Y-10449214D01*
X3829643Y-10434929D01*
X3815357Y-10420643D01*
X4129643Y-10420643D02*
X4143928Y-10434929D01*
X4129643Y-10449214D01*
X4115357Y-10434929D01*
X4129643Y-10420643D01*
X4129643Y-10449214D01*
X4401071Y-10249214D02*
X4401071Y-10449214D01*
X4329643Y-10134929D02*
X4258214Y-10349214D01*
X4443928Y-10349214D01*
X4701071Y-10149214D02*
X4558214Y-10149214D01*
X4543928Y-10292072D01*
X4558214Y-10277786D01*
X4586786Y-10263500D01*
X4658214Y-10263500D01*
X4686786Y-10277786D01*
X4701071Y-10292072D01*
X4715357Y-10320643D01*
X4715357Y-10392072D01*
X4701071Y-10420643D01*
X4686786Y-10434929D01*
X4658214Y-10449214D01*
X4586786Y-10449214D01*
X4558214Y-10434929D01*
X4543928Y-10420643D01*
X4843928Y-10449214D02*
X4843928Y-10249214D01*
X4843928Y-10277786D02*
X4858214Y-10263500D01*
X4886786Y-10249214D01*
X4929643Y-10249214D01*
X4958214Y-10263500D01*
X4972500Y-10292072D01*
X4972500Y-10449214D01*
X4972500Y-10292072D02*
X4986786Y-10263500D01*
X5015357Y-10249214D01*
X5058214Y-10249214D01*
X5086786Y-10263500D01*
X5101071Y-10292072D01*
X5101071Y-10449214D01*
X5243928Y-10449214D02*
X5243928Y-10249214D01*
X5243928Y-10277786D02*
X5258214Y-10263500D01*
X5286786Y-10249214D01*
X5329643Y-10249214D01*
X5358214Y-10263500D01*
X5372500Y-10292072D01*
X5372500Y-10449214D01*
X5372500Y-10292072D02*
X5386786Y-10263500D01*
X5415357Y-10249214D01*
X5458214Y-10249214D01*
X5486786Y-10263500D01*
X5501071Y-10292072D01*
X5501071Y-10449214D01*
X6086786Y-10134929D02*
X5829643Y-10520643D01*
X6472500Y-10149214D02*
X6501071Y-10149214D01*
X6529643Y-10163500D01*
X6543928Y-10177786D01*
X6558214Y-10206357D01*
X6572500Y-10263500D01*
X6572500Y-10334929D01*
X6558214Y-10392072D01*
X6543928Y-10420643D01*
X6529643Y-10434929D01*
X6501071Y-10449214D01*
X6472500Y-10449214D01*
X6443928Y-10434929D01*
X6429643Y-10420643D01*
X6415357Y-10392072D01*
X6401071Y-10334929D01*
X6401071Y-10263500D01*
X6415357Y-10206357D01*
X6429643Y-10177786D01*
X6443928Y-10163500D01*
X6472500Y-10149214D01*
X6701071Y-10420643D02*
X6715357Y-10434929D01*
X6701071Y-10449214D01*
X6686786Y-10434929D01*
X6701071Y-10420643D01*
X6701071Y-10449214D01*
X7001071Y-10449214D02*
X6829643Y-10449214D01*
X6915357Y-10449214D02*
X6915357Y-10149214D01*
X6886786Y-10192072D01*
X6858214Y-10220643D01*
X6829643Y-10234929D01*
X7101071Y-10149214D02*
X7286786Y-10149214D01*
X7186786Y-10263500D01*
X7229643Y-10263500D01*
X7258214Y-10277786D01*
X7272500Y-10292072D01*
X7286786Y-10320643D01*
X7286786Y-10392072D01*
X7272500Y-10420643D01*
X7258214Y-10434929D01*
X7229643Y-10449214D01*
X7143928Y-10449214D01*
X7115357Y-10434929D01*
X7101071Y-10420643D01*
X7543928Y-10149214D02*
X7486786Y-10149214D01*
X7458214Y-10163500D01*
X7443928Y-10177786D01*
X7415357Y-10220643D01*
X7401071Y-10277786D01*
X7401071Y-10392072D01*
X7415357Y-10420643D01*
X7429643Y-10434929D01*
X7458214Y-10449214D01*
X7515357Y-10449214D01*
X7543928Y-10434929D01*
X7558214Y-10420643D01*
X7572500Y-10392072D01*
X7572500Y-10320643D01*
X7558214Y-10292072D01*
X7543928Y-10277786D01*
X7515357Y-10263500D01*
X7458214Y-10263500D01*
X7429643Y-10277786D01*
X7415357Y-10292072D01*
X7401071Y-10320643D01*
X7686786Y-10149214D02*
X7686786Y-10206357D01*
X7801071Y-10149214D02*
X7801071Y-10206357D01*
X8243928Y-10563500D02*
X8229643Y-10549214D01*
X8201071Y-10506357D01*
X8186786Y-10477786D01*
X8172500Y-10434929D01*
X8158214Y-10363500D01*
X8158214Y-10306357D01*
X8172500Y-10234929D01*
X8186786Y-10192072D01*
X8201071Y-10163500D01*
X8229643Y-10120643D01*
X8243928Y-10106357D01*
X8343928Y-10177786D02*
X8358214Y-10163500D01*
X8386786Y-10149214D01*
X8458214Y-10149214D01*
X8486786Y-10163500D01*
X8501071Y-10177786D01*
X8515357Y-10206357D01*
X8515357Y-10234929D01*
X8501071Y-10277786D01*
X8329643Y-10449214D01*
X8515357Y-10449214D01*
X8872500Y-10449214D02*
X8872500Y-10149214D01*
X9001071Y-10449214D02*
X9001071Y-10292072D01*
X8986786Y-10263500D01*
X8958214Y-10249214D01*
X8915357Y-10249214D01*
X8886786Y-10263500D01*
X8872500Y-10277786D01*
X9186786Y-10449214D02*
X9158214Y-10434929D01*
X9143928Y-10420643D01*
X9129643Y-10392072D01*
X9129643Y-10306357D01*
X9143928Y-10277786D01*
X9158214Y-10263500D01*
X9186786Y-10249214D01*
X9229643Y-10249214D01*
X9258214Y-10263500D01*
X9272500Y-10277786D01*
X9286786Y-10306357D01*
X9286786Y-10392072D01*
X9272500Y-10420643D01*
X9258214Y-10434929D01*
X9229643Y-10449214D01*
X9186786Y-10449214D01*
X9458214Y-10449214D02*
X9429643Y-10434929D01*
X9415357Y-10406357D01*
X9415357Y-10149214D01*
X9686786Y-10434929D02*
X9658214Y-10449214D01*
X9601071Y-10449214D01*
X9572500Y-10434929D01*
X9558214Y-10406357D01*
X9558214Y-10292072D01*
X9572500Y-10263500D01*
X9601071Y-10249214D01*
X9658214Y-10249214D01*
X9686786Y-10263500D01*
X9701071Y-10292072D01*
X9701071Y-10320643D01*
X9558214Y-10349214D01*
X9815357Y-10434929D02*
X9843928Y-10449214D01*
X9901071Y-10449214D01*
X9929643Y-10434929D01*
X9943928Y-10406357D01*
X9943928Y-10392072D01*
X9929643Y-10363500D01*
X9901071Y-10349214D01*
X9858214Y-10349214D01*
X9829643Y-10334929D01*
X9815357Y-10306357D01*
X9815357Y-10292072D01*
X9829643Y-10263500D01*
X9858214Y-10249214D01*
X9901071Y-10249214D01*
X9929643Y-10263500D01*
X10043928Y-10563500D02*
X10058214Y-10549214D01*
X10086786Y-10506357D01*
X10101071Y-10477786D01*
X10115357Y-10434929D01*
X10129643Y-10363500D01*
X10129643Y-10306357D01*
X10115357Y-10234929D01*
X10101071Y-10192072D01*
X10086786Y-10163500D01*
X10058214Y-10120643D01*
X10043928Y-10106357D01*
M02*
