G04 #@! TF.GenerationSoftware,KiCad,Pcbnew,(5.1.4)-1*
G04 #@! TF.CreationDate,2020-05-05T13:32:26+02:00*
G04 #@! TF.ProjectId,PGHM_PCB,5047484d-5f50-4434-922e-6b696361645f,rev?*
G04 #@! TF.SameCoordinates,Original*
G04 #@! TF.FileFunction,Copper,L2,Bot*
G04 #@! TF.FilePolarity,Positive*
%FSLAX46Y46*%
G04 Gerber Fmt 4.6, Leading zero omitted, Abs format (unit mm)*
G04 Created by KiCad (PCBNEW (5.1.4)-1) date 2020-05-05 13:32:26*
%MOMM*%
%LPD*%
G04 APERTURE LIST*
%ADD10C,1.800860*%
%ADD11C,3.600000*%
%ADD12C,1.000000*%
%ADD13C,0.100000*%
%ADD14C,2.000000*%
%ADD15C,1.998980*%
%ADD16R,1.998980X1.998980*%
%ADD17C,1.520000*%
%ADD18R,1.520000X1.520000*%
%ADD19R,1.700000X2.000000*%
%ADD20R,2.000000X1.700000*%
%ADD21C,0.500000*%
G04 APERTURE END LIST*
D10*
X52578000Y-33401000D03*
X52578000Y-40640000D03*
D11*
X57700000Y-27140000D03*
X57700000Y-79140000D03*
D12*
X56089340Y-45510660D03*
D13*
G36*
X56301472Y-46429899D02*
G01*
X55170101Y-45298528D01*
X55877208Y-44591421D01*
X57008579Y-45722792D01*
X56301472Y-46429899D01*
X56301472Y-46429899D01*
G37*
D12*
X58210660Y-43389340D03*
D13*
G36*
X58422792Y-44308579D02*
G01*
X57291421Y-43177208D01*
X57998528Y-42470101D01*
X59129899Y-43601472D01*
X58422792Y-44308579D01*
X58422792Y-44308579D01*
G37*
D14*
X49700000Y-50100000D03*
D15*
X42080000Y-47560000D03*
X44620000Y-47560000D03*
X47160000Y-47560000D03*
X49700000Y-47560000D03*
D16*
X52240000Y-47560000D03*
D15*
X52240000Y-50100000D03*
X47160000Y-50100000D03*
X44620000Y-50100000D03*
X42080000Y-50100000D03*
D17*
X40005000Y-41910000D03*
X40005000Y-39370000D03*
D18*
X40005000Y-44450000D03*
D19*
X44450000Y-43910000D03*
X44450000Y-39910000D03*
D20*
X38330000Y-53220000D03*
X42330000Y-53220000D03*
X56490000Y-53220000D03*
X52490000Y-53220000D03*
D14*
X50800000Y-57095000D03*
X50800000Y-61595000D03*
X57300000Y-57095000D03*
X57300000Y-61595000D03*
X45085000Y-61650000D03*
X45085000Y-57150000D03*
X38585000Y-61650000D03*
X38585000Y-57150000D03*
D21*
X52578000Y-33401000D02*
X45999000Y-33401000D01*
X45999000Y-33401000D02*
X40000000Y-39400000D01*
X53851400Y-33401000D02*
X59000000Y-38549600D01*
X52578000Y-33401000D02*
X53851400Y-33401000D01*
X59000000Y-38549600D02*
X59000000Y-42600000D01*
X59000000Y-42600000D02*
X58200000Y-43400000D01*
X50800000Y-57095000D02*
X57295000Y-57095000D01*
X57295000Y-57095000D02*
X58400000Y-55990000D01*
X58400000Y-55990000D02*
X58400000Y-54000000D01*
X58400000Y-54000000D02*
X57600000Y-53200000D01*
X57600000Y-53200000D02*
X56600000Y-53200000D01*
X56600000Y-53200000D02*
X56000000Y-53200000D01*
X56000000Y-53200000D02*
X54800000Y-52000000D01*
X54800000Y-52000000D02*
X54800000Y-46800000D01*
X54800000Y-46800000D02*
X56000000Y-45600000D01*
X56089340Y-45510660D02*
X56600000Y-45000000D01*
X56600000Y-45000000D02*
X56600000Y-44200000D01*
X56600000Y-44200000D02*
X53200000Y-40800000D01*
X53200000Y-40800000D02*
X52800000Y-40800000D01*
X52800000Y-40800000D02*
X52600000Y-40800000D01*
X49700000Y-47560000D02*
X49700000Y-41700000D01*
X49700000Y-41700000D02*
X50800000Y-40600000D01*
X50800000Y-40600000D02*
X52600000Y-40600000D01*
X43830000Y-53220000D02*
X44600000Y-52450000D01*
X42330000Y-53220000D02*
X43830000Y-53220000D01*
X44600000Y-52450000D02*
X44600000Y-50200000D01*
X55885787Y-61595000D02*
X55880787Y-61600000D01*
X57300000Y-61595000D02*
X55885787Y-61595000D01*
X55880787Y-61600000D02*
X50800000Y-61600000D01*
X52600000Y-53000000D02*
X51000000Y-54600000D01*
X51000000Y-54600000D02*
X49400000Y-54600000D01*
X49400000Y-54600000D02*
X46800000Y-57200000D01*
X46800000Y-57200000D02*
X45200000Y-57200000D01*
X45085000Y-57150000D02*
X38650000Y-57150000D01*
X38650000Y-57150000D02*
X38600000Y-57200000D01*
X52600000Y-51873492D02*
X52600000Y-53000000D01*
X52240000Y-50100000D02*
X52240000Y-51513492D01*
X52240000Y-51513492D02*
X52600000Y-51873492D01*
X38745000Y-44450000D02*
X37400000Y-45795000D01*
X40005000Y-44450000D02*
X38745000Y-44450000D01*
X37400000Y-52400000D02*
X38200000Y-53200000D01*
X37400000Y-51400000D02*
X37400000Y-52200000D01*
X37400000Y-51400000D02*
X37400000Y-52400000D01*
X37400000Y-45795000D02*
X37400000Y-51400000D01*
X37400000Y-52200000D02*
X36400000Y-53200000D01*
X36400000Y-53200000D02*
X36400000Y-59400000D01*
X36400000Y-59400000D02*
X38600000Y-61600000D01*
X38600000Y-61600000D02*
X39200000Y-62200000D01*
X39200000Y-62200000D02*
X44600000Y-62200000D01*
X44600000Y-62200000D02*
X45200000Y-61600000D01*
X44620000Y-47560000D02*
X44620000Y-44220000D01*
X44620000Y-44220000D02*
X44400000Y-44000000D01*
X41079802Y-41910000D02*
X42989802Y-40000000D01*
X40005000Y-41910000D02*
X41079802Y-41910000D01*
X42989802Y-40000000D02*
X44400000Y-40000000D01*
M02*
